﻿1     	Jonathan Janniere  	10/30/2015 08:35:58 a.m.	Entrada	Colon       	0               
1     	Jonathan Janniere  	10/30/2015 12:18:24 p.m.	Entrada	Colon       	0               
1     	Jonathan Janniere  	10/30/2015 01:15:49 p.m.	Entrada	Colon       	0               
1     	Jonathan Janniere  	10/30/2015 05:39:16 p.m.	Entrada	Colon       	0               
1     	Jonathan Janniere  	11/06/2015 08:13:38 a.m.	Entrada	Colon       	0               
1     	Jonathan Janniere  	11/06/2015 12:06:03 p.m.	Entrada	Colon       	0               
1     	Jonathan Janniere  	11/06/2015 01:09:47 p.m.	Entrada	Colon       	0               
1     	Jonathan Janniere  	11/06/2015 05:17:35 p.m.	Entrada	Colon       	0               
1     	Jonathan Janniere  	11/09/2015 08:18:54 a.m.	Entrada	Colon       	0               
1     	Jonathan Janniere  	11/09/2015 12:06:47 p.m.	Entrada	Colon       	0               
1     	Jonathan Janniere  	11/09/2015 01:05:51 p.m.	Entrada	Colon       	0               
1     	Jonathan Janniere  	11/09/2015 05:26:57 p.m.	Entrada	Colon       	0               
1     	Jonathan Janniere  	11/11/2015 08:20:10 a.m.	Entrada	Colon       	0               
1     	Jonathan Janniere  	11/11/2015 12:02:04 p.m.	Entrada	Colon       	0               
1     	Jonathan Janniere  	11/11/2015 01:00:12 p.m.	Entrada	Colon       	0               
1     	Jonathan Janniere  	11/11/2015 05:24:18 p.m.	Entrada	Colon       	0               
2     	Franklin Santimateo	10/30/2015 07:57:37 a.m.	Entrada	Colon       	0               
2     	Franklin Santimateo	10/30/2015 05:48:14 p.m.	Entrada	Colon       	0               
2     	Franklin Santimateo	11/06/2015 08:12:11 a.m.	Entrada	Colon       	0               
2     	Franklin Santimateo	11/06/2015 01:04:35 p.m.	Entrada	Colon       	0               
2     	Franklin Santimateo	11/06/2015 01:49:53 p.m.	Entrada	Colon       	0               
2     	Franklin Santimateo	11/06/2015 05:20:49 p.m.	Entrada	Colon       	0               
2     	Franklin Santimateo	11/09/2015 08:18:17 a.m.	Entrada	Colon       	0               
2     	Franklin Santimateo	11/09/2015 12:16:53 p.m.	Entrada	Colon       	0               
2     	Franklin Santimateo	11/09/2015 01:05:42 p.m.	Entrada	Colon       	0               
2     	Franklin Santimateo	11/09/2015 05:28:13 p.m.	Entrada	Colon       	0               
2     	Franklin Santimateo	11/11/2015 08:15:38 a.m.	Entrada	Colon       	0               
2     	Franklin Santimateo	11/11/2015 12:47:49 p.m.	Entrada	Colon       	0               
2     	Franklin Santimateo	11/11/2015 01:17:44 p.m.	Entrada	Colon       	0               
2     	Franklin Santimateo	11/11/2015 05:28:18 p.m.	Entrada	Colon       	0               
3     	Karen Carrillo     	11/06/2015 10:44:56 a.m.	Entrada	Colon       	0               
3     	Karen Carrillo     	11/06/2015 01:11:11 p.m.	Entrada	Colon       	0               
3     	Karen Carrillo     	11/06/2015 02:05:57 p.m.	Entrada	Colon       	0               
3     	Karen Carrillo     	11/06/2015 05:19:03 p.m.	Entrada	Colon       	0               
3     	Karen Carrillo     	11/09/2015 08:19:04 a.m.	Entrada	Colon       	0               
3     	Karen Carrillo     	11/09/2015 01:45:58 p.m.	Entrada	Colon       	0               
3     	Karen Carrillo     	11/09/2015 02:31:57 p.m.	Entrada	Colon       	0               
3     	Karen Carrillo     	11/09/2015 05:27:19 p.m.	Entrada	Colon       	0               
3     	Karen Carrillo     	11/11/2015 08:16:28 a.m.	Entrada	Colon       	0               
3     	Karen Carrillo     	11/11/2015 01:06:08 p.m.	Entrada	Colon       	0               
3     	Karen Carrillo     	11/11/2015 01:54:39 p.m.	Entrada	Colon       	0               
3     	Karen Carrillo     	11/11/2015 05:28:31 p.m.	Entrada	Colon       	0               
9999     	xxx xxxxx     	12/12/2119 12:12:12 a. m. 	Entrada	Suzuki      	0               