     
      2 16/04/15 07:42 1 14/04/15 07:39
      1 15/04/15 08:01
      1 16/04/15 07:45
      1 18/04/15 09:20
      1 20/04/15 07:33
      1 21/04/15 08:00
      1 22/04/15 07:56
      1 23/04/15 07:52
      1 24/04/15 07:19
      2 18/04/15 08:56
      2 20/04/15 08:03
      2 21/04/15 08:22
      2 23/04/15 07:57
      2 24/04/15 08:08
      3 13/04/15 08:02
      3 13/04/15 12:03
      3 13/04/15 13:18
      3 13/04/15 18:02
      3 14/04/15 08:09
      3 14/04/15 13:30
      3 14/04/15 14:20
      3 14/04/15 18:06
      3 15/04/15 08:45
      3 15/04/15 13:25
      3 15/04/15 14:22
      3 15/04/15 17:00
      3 16/04/15 08:31
      3 16/04/15 08:34
      3 16/04/15 12:31
      3 16/04/15 13:29
      3 16/04/15 13:31
      3 16/04/15 17:03
      3 17/04/15 08:04
      3 17/04/15 12:53
      3 17/04/15 13:54
      3 17/04/15 17:08
      3 18/04/15 08:51
      3 18/04/15 12:45
      3 18/04/15 12:57
      3 18/04/15 17:01
      3 20/04/15 08:17
      3 20/04/15 13:40
      3 20/04/15 14:07
      3 20/04/15 15:39
      3 21/04/15 08:43
      3 21/04/15 14:37
      3 21/04/15 14:49
      3 23/04/15 07:46
      3 23/04/15 12:31
      3 23/04/15 13:31
      3 23/04/15 17:01
      3 24/04/15 07:44
      3 24/04/15 14:40
      3 24/04/15 15:27
      4 14/04/15 08:36
      4 14/04/15 13:15
      4 14/04/15 14:19
      4 14/04/15 18:13
      4 15/04/15 08:55
      4 15/04/15 13:22
      4 15/04/15 14:23
      4 15/04/15 16:49
      4 16/04/15 08:58
      4 16/04/15 14:10
      4 16/04/15 14:37
      4 16/04/15 17:03
      4 17/04/15 09:04
      4 17/04/15 12:45
      4 17/04/15 13:46
      4 17/04/15 17:09
      4 18/04/15 09:59
      4 18/04/15 13:24
      4 18/04/15 13:43
      4 18/04/15 17:03
      4 20/04/15 08:46
      4 20/04/15 13:42
      4 20/04/15 14:22
      4 20/04/15 17:05
      4 21/04/15 08:58
      4 21/04/15 17:03
      4 22/04/15 08:36
      4 22/04/15 12:56
      4 22/04/15 13:45
      4 22/04/15 17:02
      4 24/04/15 08:39
      4 24/04/15 13:38
      4 24/04/15 14:03
      5 13/04/15 07:40
      5 14/04/15 07:47
      5 15/04/15 07:42
      5 16/04/15 07:58
      5 18/04/15 08:28
      5 20/04/15 07:33
      5 21/04/15 07:40
      5 22/04/15 07:19
      5 23/04/15 07:19
      5 24/04/15 07:19
      6 13/04/15 07:11
      6 13/04/15 07:11
      6 13/04/15 07:11
      6 13/04/15 07:12
      6 13/04/15 07:12
      6 14/04/15 07:30
      6 15/04/15 07:18
      6 15/04/15 07:18
      6 16/04/15 07:39
      6 16/04/15 07:40
      6 16/04/15 07:40
      6 17/04/15 07:19
      6 18/04/15 08:33
      6 20/04/15 07:34
      6 20/04/15 07:34
      6 20/04/15 07:34
      6 21/04/15 07:41
      6 21/04/15 07:41
      6 21/04/15 07:41
      6 22/04/15 07:20
      6 22/04/15 07:20
      6 22/04/15 07:20
      6 23/04/15 07:19
      6 23/04/15 07:19
      7 14/04/15 07:29
      7 17/04/15 07:18
      7 21/04/15 07:39
     11 14/04/15 08:36
     11 15/04/15 08:32
     11 16/04/15 08:50
     11 17/04/15 08:37
     11 18/04/15 09:46
     11 20/04/15 08:36
     11 21/04/15 08:26
     11 21/04/15 08:26
     11 22/04/15 08:53
     11 24/04/15 08:42
     12 13/04/15 08:20
     12 14/04/15 08:04
     12 15/04/15 08:01
     12 16/04/15 08:24
     12 18/04/15 09:02
     12 20/04/15 07:51
     12 21/04/15 08:05
     12 22/04/15 08:21
     12 23/04/15 08:12
     16 13/04/15 07:53
     16 14/04/15 08:12
     16 14/04/15 18:13
     16 15/04/15 08:23
     16 16/04/15 07:40
     16 16/04/15 17:08
     16 17/04/15 07:56
     16 17/04/15 17:04
     16 18/04/15 08:54
     16 18/04/15 17:01
     16 20/04/15 07:51
     16 20/04/15 17:07
     16 21/04/15 08:15
     16 22/04/15 07:59
     16 22/04/15 17:02
     16 23/04/15 07:57
     16 23/04/15 17:02
     16 24/04/15 07:52
     22 13/04/15 07:11
     22 13/04/15 12:52
     22 13/04/15 13:47
     22 13/04/15 18:02
     22 14/04/15 07:29
     22 14/04/15 12:37
     22 14/04/15 13:24
     22 14/04/15 18:03
     22 15/04/15 07:18
     22 15/04/15 12:44
     22 15/04/15 13:36
     22 15/04/15 17:00
     22 16/04/15 07:40
     22 16/04/15 13:29
     22 16/04/15 14:37
     22 16/04/15 14:37
     22 16/04/15 17:03
     22 17/04/15 07:18
     22 17/04/15 12:57
     22 17/04/15 13:40
     22 17/04/15 17:08
     22 18/04/15 08:09
     22 18/04/15 12:26
     22 18/04/15 12:39
     22 18/04/15 17:02
     22 20/04/15 07:32
     22 20/04/15 12:39
     22 20/04/15 13:29
     22 20/04/15 17:02
     22 21/04/15 07:40
     22 21/04/15 13:31
     22 21/04/15 14:21
     22 21/04/15 17:01
     22 22/04/15 07:21
     22 22/04/15 12:38
     22 22/04/15 13:33
     22 22/04/15 17:02
     22 23/04/15 07:19
     22 23/04/15 12:42
     22 23/04/15 13:31
     22 23/04/15 17:01
     22 24/04/15 07:19
     22 24/04/15 12:50
     22 24/04/15 13:43
     26 13/04/15 07:34
     26 13/04/15 12:38
     26 13/04/15 13:34
     26 13/04/15 18:02
     26 14/04/15 07:34
     26 14/04/15 13:01
     26 14/04/15 13:58
     26 14/04/15 18:02
     26 15/04/15 07:39
     26 15/04/15 12:30
     26 15/04/15 13:26
     26 15/04/15 17:01
     26 16/04/15 07:43
     26 16/04/15 12:27
     26 16/04/15 13:27
     26 16/04/15 17:01
     26 17/04/15 07:36
     26 17/04/15 12:25
     26 17/04/15 13:23
     26 17/04/15 17:04
     26 18/04/15 08:47
     26 18/04/15 12:15
     26 18/04/15 12:39
     26 18/04/15 16:40
     26 21/04/15 07:40
     26 21/04/15 12:34
     26 21/04/15 13:29
     26 21/04/15 17:00
     26 22/04/15 07:21
     26 22/04/15 12:34
     26 22/04/15 13:33
     26 22/04/15 17:01
     26 23/04/15 07:41
     26 23/04/15 12:32
     26 23/04/15 13:29
     26 23/04/15 17:01
     26 24/04/15 07:41
     26 24/04/15 12:33
     26 24/04/15 13:30
     26 24/04/15 17:01